
Program received signal SIGSEGV: Segmentation fault - invalid memory reference.

Program received signal SIGSEGV: Segmentation fault - invalid memory reference.

Backtrace for this error:

Program received signal SIGSEGV: Segmentation fault - invalid memory reference.

Backtrace for this error:

Program received signal SIGSEGV: Segmentation fault - invalid memory reference.

Backtrace for this error:

Program received signal SIGSEGV: Segmentation fault - invalid memory reference.

Backtrace for this error:

Program received signal SIGSEGV: Segmentation fault - invalid memory reference.

Backtrace for this error:

Program received signal SIGSEGV: Segmentation fault - invalid memory reference.

Backtrace for this error:

Program received signal SIGSEGV: Segmentation fault - invalid memory reference.

Backtrace for this error:

Program received signal SIGSEGV: Segmentation fault - invalid memory reference.

Backtrace for this error:

Program received signal SIGSEGV: Segmentation fault - invalid memory reference.

Backtrace for this error:

Program received signal SIGSEGV: Segmentation fault - invalid memory reference.

Backtrace for this error:

Program received signal SIGSEGV: Segmentation fault - invalid memory reference.

Backtrace for this error:

Program received signal SIGSEGV: Segmentation fault - invalid memory reference.

Backtrace for this error:

Program received signal SIGSEGV: Segmentation fault - invalid memory reference.

Backtrace for this error:

Program received signal SIGSEGV: Segmentation fault - invalid memory reference.

Backtrace for this error:

Program received signal SIGSEGV: Segmentation fault - invalid memory reference.

Backtrace for this error:

Program received signal SIGSEGV: Segmentation fault - invalid memory reference.

Backtrace for this error:

Program received signal SIGSEGV: Segmentation fault - invalid memory reference.

Backtrace for this error:

Program received signal SIGSEGV: Segmentation fault - invalid memory reference.

Backtrace for this error:

Program received signal SIGSEGV: Segmentation fault - invalid memory reference.

Backtrace for this error:

Program received signal SIGSEGV: Segmentation fault - invalid memory reference.

Backtrace for this error:

Program received signal SIGSEGV: Segmentation fault - invalid memory reference.

Backtrace for this error:

Program received signal SIGSEGV: Segmentation fault - invalid memory reference.

Backtrace for this error:

Program received signal SIGSEGV: Segmentation fault - invalid memory reference.

Backtrace for this error:

Program received signal SIGSEGV: Segmentation fault - invalid memory reference.

Backtrace for this error:

Program received signal SIGSEGV: Segmentation fault - invalid memory reference.

Backtrace for this error:

Program received signal SIGSEGV: Segmentation fault - invalid memory reference.

Backtrace for this error:

Program received signal SIGSEGV: Segmentation fault - invalid memory reference.

Backtrace for this error:

Program received signal SIGSEGV: Segmentation fault - invalid memory reference.

Backtrace for this error:

Program received signal SIGSEGV: Segmentation fault - invalid memory reference.

Backtrace for this error:

Program received signal SIGSEGV: Segmentation fault - invalid memory reference.

Backtrace for this error:

Program received signal SIGSEGV: Segmentation fault - invalid memory reference.

Backtrace for this error:

Backtrace for this error:
#0  0x7f0e0a0778da
#1  0x7f0e0a076ae3
#2  0x7f0e09cce83f
#3  0x7f0e09df3b0d
#4  0x561e4a432560
#5  0x561e4a43ea63
#6  0x561e4a43140e
#7  0x7f0e09cbb09a
#8  0x561e4a431449
#9  0xffffffffffffffff
#0  0x7f554473d8da
#1  0x7f554473cae3
#2  0x7f554439483f
#3  0x7f55444b9b0d
#4  0x564b0970e560
#5  0x564b0971aa63
#6  0x564b0970d40e
#7  0x7f554438109a
#8  0x564b0970d449
#9  0xffffffffffffffff
#0  0x7f40034588da
#1  0x7f4003457ae3
#2  0x7f40030af83f
#3  0x7f40031d4b0d
#4  0x55ce08841560
#5  0x55ce0884da63
#6  0x55ce0884040e
#7  0x7f400309c09a
#8  0x55ce08840449
#9  0xffffffffffffffff
#0  0x7f2d4e4408da
#1  0x7f2d4e43fae3
#2  0x7f2d4e09783f
#3  0x7f2d4e1bcb0d
#4  0x55e4b0a9b560
#5  0x55e4b0aa7a63
#6  0x55e4b0a9a40e
#7  0x7f2d4e08409a
#8  0x55e4b0a9a449
#9  0xffffffffffffffff
#0  0x7f276ba4f8da
#1  0x7f276ba4eae3
#2  0x7f276b6a683f
#3  0x7f276b7cbb0d
#4  0x55a70d1f1560
#5  0x55a70d1fda63
#6  0x55a70d1f040e
#7  0x7f276b69309a
#8  0x55a70d1f0449
#9  0xffffffffffffffff
#0  0x7f89cb45f8da
#1  0x7f89cb45eae3
#2  0x7f89cb0b683f
#3  0x7f89cb1dbb0d
#4  0x561e08e3d560
#5  0x561e08e49a63
#6  0x561e08e3c40e
#7  0x7f89cb0a309a
#8  0x561e08e3c449
#9  0xffffffffffffffff
#0  0x7f13ededf8da
#1  0x7f13ededeae3
#2  0x7f13edb3683f
#3  0x7f13edc5bb0d
#4  0x560556bcd560
#5  0x560556bd9a63
#6  0x560556bcc40e
#7  0x7f13edb2309a
#8  0x560556bcc449
#9  0xffffffffffffffff
#0  0x7f99a0e578da
#1  0x7f99a0e56ae3
#2  0x7f99a0aae83f
#3  0x7f99a0bd3b0d
#4  0x561ed6123560
#5  0x561ed612fa63
#6  0x561ed612240e
#7  0x7f99a0a9b09a
#8  0x561ed6122449
#9  0xffffffffffffffff
#0  0x7f75b70068da
#1  0x7f75b7005ae3
#2  0x7f75b6c5d83f
#3  0x7f75b6d82b0d
#4  0x55d61196d560
#5  0x55d611979a63
#6  0x55d61196c40e
#7  0x7f75b6c4a09a
#8  0x55d61196c449
#9  0xffffffffffffffff
#0  0x7fa46381b8da
#1  0x7fa46381aae3
#2  0x7fa46347283f
#3  0x7fa463597b0d
#4  0x555bb24c9560
#5  0x555bb24d5a63
#6  0x555bb24c840e
#7  0x7fa46345f09a
#8  0x555bb24c8449
#9  0xffffffffffffffff
#0  0x7f65bdde28da
#1  0x7f65bdde1ae3
#2  0x7f65bda3983f
#3  0x7f65bdb5eb0d
#4  0x562249368560
#5  0x562249374a63
#6  0x56224936740e
#7  0x7f65bda2609a
#8  0x562249367449
#9  0xffffffffffffffff
#0  0x7ffa8eeda8da
#1  0x7ffa8eed9ae3
#2  0x7ffa8eb3183f
#3  0x7ffa8ec56b0d
#4  0x55eac7d9b560
#5  0x55eac7da7a63
#6  0x55eac7d9a40e
#7  0x7ffa8eb1e09a
#8  0x55eac7d9a449
#9  0xffffffffffffffff
#0  0x7fe379ad48da
#1  0x7fe379ad3ae3
#2  0x7fe37972b83f
#3  0x7fe379850b0d
#4  0x55a8e6abc560
#5  0x55a8e6ac8a63
#6  0x55a8e6abb40e
#7  0x7fe37971809a
#8  0x55a8e6abb449
#9  0xffffffffffffffff
#0  0x7f8bd8a5a8da
#1  0x7f8bd8a59ae3
#2  0x7f8bd86b183f
#3  0x7f8bd87d6b0d
#4  0x55753bdc3560
#5  0x55753bdcfa63
#6  0x55753bdc240e
#7  0x7f8bd869e09a
#8  0x55753bdc2449
#9  0xffffffffffffffff
#0  0x7f1a0c6da8da
#1  0x7f1a0c6d9ae3
#2  0x7f1a0c33183f
#3  0x7f1a0c456b0d
#4  0x55eb0249b560
#5  0x55eb024a7a63
#6  0x55eb0249a40e
#7  0x7f1a0c31e09a
#8  0x55eb0249a449
#9  0xffffffffffffffff
#0  0x7f06db8048da
#1  0x7f06db803ae3
#2  0x7f06db45b83f
#3  0x7f06db580b0d
#4  0x55b2f3e4c560
#5  0x55b2f3e58a63
#6  0x55b2f3e4b40e
#7  0x7f06db44809a
#8  0x55b2f3e4b449
#9  0xffffffffffffffff
#0  0x7f55d3ea98da
#1  0x7f55d3ea8ae3
#2  0x7f55d3b0083f
#3  0x7f55d3c25b0d
#4  0x561e920f3560
#5  0x561e920ffa63
#6  0x561e920f240e
#7  0x7f55d3aed09a
#8  0x561e920f2449
#9  0xffffffffffffffff
#0  0x7ff32ef1b8da
#1  0x7ff32ef1aae3
#2  0x7ff32eb7283f
#3  0x7ff32ec97b0d
#4  0x55e35b425560
#5  0x55e35b431a63
#6  0x55e35b42440e
#7  0x7ff32eb5f09a
#8  0x55e35b424449
#9  0xffffffffffffffff
#0  0x7fdb830098da
#1  0x7fdb83008ae3
#2  0x7fdb82c6083f
#3  0x7fdb82d85b0d
#4  0x558b41602560
#5  0x558b4160ea63
#6  0x558b4160140e
#7  0x7fdb82c4d09a
#8  0x558b41601449
#9  0xffffffffffffffff
#0  0x7f777e5e88da
#0  0x7fb29069c8da
#1  0x7fb29069bae3
#2  0x7fb2902f383f
#3  0x7fb290418b0d
#4  0x55d3a60a4560
#5  0x55d3a60b0a63
#6  0x55d3a60a340e
#7  0x7fb2902e009a
#8  0x55d3a60a3449
#9  0xffffffffffffffff
#0  0x7f94fc81e8da
#1  0x7f94fc81dae3
#2  0x7f94fc47583f
#3  0x7f94fc59ab0d
#4  0x56481b7d3560
#5  0x56481b7dfa63
#6  0x56481b7d240e
#7  0x7f94fc46209a
#8  0x56481b7d2449
#9  0xffffffffffffffff
#0  0x7fefc142d8da
#1  0x7fefc142cae3
#2  0x7fefc108483f
#3  0x7fefc11a9b0d
#4  0x55c35badd560
#5  0x55c35bae9a63
#6  0x55c35badc40e
#7  0x7fefc107109a
#8  0x55c35badc449
#9  0xffffffffffffffff
#0  0x7fcbb042c8da
#1  0x7fcbb042bae3
#2  0x7fcbb008383f
#3  0x7fcbb01a8b0d
#4  0x55ca22d1a560
#5  0x55ca22d26a63
#6  0x55ca22d1940e
#7  0x7fcbb007009a
#8  0x55ca22d19449
#9  0xffffffffffffffff
#0  0x7f3d51a088da
#1  0x7f3d51a07ae3
#2  0x7f3d5165f83f
#3  0x7f3d51784b0d
#4  0x55726807c560
#5  0x557268088a63
#6  0x55726807b40e
#7  0x7f3d5164c09a
#8  0x55726807b449
#9  0xffffffffffffffff
#0  0x7f2b115a38da
#1  0x7f2b115a2ae3
#2  0x7f2b111fa83f
#3  0x7f2b1131fb0d
#4  0x55a57ac0c560
#5  0x55a57ac18a63
#6  0x55a57ac0b40e
#7  0x7f2b111e709a
#8  0x55a57ac0b449
#9  0xffffffffffffffff
#0  0x7f114ddcc8da
#1  0x7f114ddcbae3
#2  0x7f114da2383f
#3  0x7f114db48b0d
#4  0x557a164dc560
#5  0x557a164e8a63
#6  0x557a164db40e
#7  0x7f114da1009a
#8  0x557a164db449
#9  0xffffffffffffffff
#0  0x7fd9dfd4e8da
#1  0x7fd9dfd4dae3
#2  0x7fd9df9a583f
#3  0x7fd9dfacab0d
#4  0x55b2aa915560
#5  0x55b2aa921a63
#6  0x55b2aa91440e
#7  0x7fd9df99209a
#8  0x55b2aa914449
#9  0xffffffffffffffff
#1  0x7f777e5e7ae3
#2  0x7f777e23f83f
#3  0x7f777e364b0d
#4  0x55ebf4d31560
#5  0x55ebf4d3da63
#6  0x55ebf4d3040e
#0  0x7f3b43ca08da
#1  0x7f3b43c9fae3
#2  0x7f3b438f783f
#3  0x7f3b43a1cb0d
#4  0x55b9c6491560
#5  0x55b9c649da63
#6  0x55b9c649040e
#0  0x7f1afe60e8da
#1  0x7f1afe60dae3
#2  0x7f1afe26583f
#3  0x7f1afe38ab0d
#4  0x55e88bee4560
#5  0x55e88bef0a63
#6  0x55e88bee340e
#7  0x7f1afe25209a
#8  0x55e88bee3449
#9  0xffffffffffffffff
#7  0x7f3b438e409a
#8  0x55b9c6490449
#9  0xffffffffffffffff
#7  0x7f777e22c09a
#8  0x55ebf4d30449
#9  0xffffffffffffffff
--------------------------------------------------------------------------
Primary job  terminated normally, but 1 process returned
a non-zero exit code. Per user-direction, the job has been aborted.
--------------------------------------------------------------------------
--------------------------------------------------------------------------
mpirun noticed that process rank 7 with PID 0 on node instance-103 exited on signal 11 (Segmentation fault).
--------------------------------------------------------------------------
